{
    "name": "InputAction",
    "maps": [
        {
            "name": "GameInput",
            "id": "af1d5d3e-3441-4b27-839f-4f1880e6340f",
            "actions": [
                {
                    "name": "Move",
                    "type": "Value",
                    "id": "2c2e0316-fca5-44df-a4dd-178843b3aef3",
                    "expectedControlType": "Vector2",
                    "processors": "",
                    "interactions": "",
                    "initialStateCheck": true
                }
            ],
            "bindings": [
                {
                    "name": "2D Vector",
                    "id": "0e3c16e2-fb73-453b-8fe6-93eb239df6d1",
                    "path": "2DVector",
                    "interactions": "",
                    "processors": "",
                    "groups": "",
                    "action": "Move",
                    "isComposite": true,
                    "isPartOfComposite": false
                },
                {
                    "name": "up",
                    "id": "ce11938d-d1f7-4c92-8db6-2de6d21abe20",
                    "path": "<Keyboard>/w",
                    "interactions": "",
                    "processors": "",
                    "groups": "PC",
                    "action": "Move",
                    "isComposite": false,
                    "isPartOfComposite": true
                },
                {
                    "name": "down",
                    "id": "cc4a72ac-8aa7-4bd8-a43f-3a72002bbc94",
                    "path": "<Keyboard>/s",
                    "interactions": "",
                    "processors": "",
                    "groups": "PC",
                    "action": "Move",
                    "isComposite": false,
                    "isPartOfComposite": true
                },
                {
                    "name": "left",
                    "id": "1ab05840-ab91-4d7e-bc2b-7eac24645455",
                    "path": "<Keyboard>/a",
                    "interactions": "",
                    "processors": "",
                    "groups": "PC",
                    "action": "Move",
                    "isComposite": false,
                    "isPartOfComposite": true
                },
                {
                    "name": "right",
                    "id": "317374c2-1ac8-41ec-a1d0-e3e059783656",
                    "path": "<Keyboard>/d",
                    "interactions": "",
                    "processors": "",
                    "groups": "PC",
                    "action": "Move",
                    "isComposite": false,
                    "isPartOfComposite": true
                }
            ]
        }
    ],
    "controlSchemes": [
        {
            "name": "PC",
            "bindingGroup": "PC",
            "devices": [
                {
                    "devicePath": "<Keyboard>",
                    "isOptional": false,
                    "isOR": false
                }
            ]
        }
    ]
}